Harpege;Nom usuel;Premier prénom;Libellé civilité;D.naissance;Age;Libellé court du corps ec;Libellé du grade;Libellé long structure affectation;Affectation rech.;Quotité;Service;CNU
19420;ACUNDEGER;EROL;Monsieur;17/12/1964;57.27;PAST;;IUT - DPT INFORMATIQUE;;50;96;27
16463;ALLIEZ;PIERRE;Monsieur;15/01/1973;49.19;DIR.RECH.;DR;INRIA - TITANE;;100;0;
17320;ALOUF;SARA;Madame;27/09/1975;46.49;CH.RECH.;CR;INRIA - NEO;;100;0;
64680;APARICIO PARDO;RAMON;Monsieur;20/04/1982;39.93;MAIT.CONF.;MT.CONF.CL NORM.;EUR DS4H - DEPARTEMENT INFORMATIQUE;SC-UMR 7271 I3S;100;192;27
78600;BALDELLON;OLIVIER;Monsieur;29/07/1987;34.66;PRAG/PRCE;PRAG CN;EUR DS4H - DEPARTEMENT INFORMATIQUE;;100;384;26
16461;BARAKAT;CHADI;Monsieur;19/06/1974;47.77;DIR.RECH.;DR;INRIA - DIANA;;100;0;
787;BAUDE;FRANCOISE;Madame;30/03/1966;55.99;PROF.UNIV.;PRF.UNI.1C;POLYTECH - DPT SCIENCES INFORMATIQUES (SI);SC-UMR 7271 I3S;100;192;27
2783;BEAUQUIER;BRUNO;Monsieur;17/04/1973;48.94;MAIT.CONF.;MT.CONF.CL NORM.;EUR DS4H - DEPARTEMENT INFORMATIQUE;SC-UMR 7271 I3S;100;192;27
70644;BENSMAIL;JULIEN;Monsieur;26/03/1988;34.00;MAIT.CONF.;MT.CONF.CL NORM.;IUT - DPT QUALITE LOGISTIQUE INDUSTRIELLE ET ORGANISATION;SC-UMR 7271 I3S;100;192;27
20870;BERNOT;GILLES;Monsieur;05/01/1959;63.22;PROF.UNIV.;PRF.UNI.CE;POLYTECH - DPT GENIE BIOLOGIQUE (GB);SC-UMR 7271 I3S;100;192;27
13419;BERTOT;YVES;Monsieur;05/10/1964;57.47;DIR.RECH.;DR;INRIA - STAMP;;100;0;
984;BLAY;MIREILLE;Madame;17/09/1963;58.52;PROF.UNIV.;PRF.UNI.1C;IUT - DPT INFORMATIQUE;SC-UMR 7271 I3S;100;192;27
1227;BOND;IOAN;Monsieur;10/01/1954;68.21;PROF.UNIV.;PRF.UNI.1C;POLYTECH - DPT SCIENCES INFORMATIQUES (SI);SC-UMR 7271 I3S;100;192;27
9171;BOUDAOUD;KARIMA;Mademoiselle;17/03/1970;52.02;MAIT.CONF.;MT.CONF.CL NORM.;IUT - DPT RESEAUX ET TELECOMMUNICATION;SC-UMR 7271 I3S;100;192;27
22340;BREMOND;FRANCOIS;Monsieur;24/04/1968;53.92;DIR.RECH.;DR1;INRIA - STARS ;;100;0;
686;BRENAC;LISE;Madame;17/03/1961;61.02;PRAG/PRCE;PRCE CE;IUT - DPT INFORMATIQUE;;100;307;Info-Gestion
849;BUFFA;MICHEL;Monsieur;16/04/1965;56.94;MAIT.CONF.;MT.CONF.HC;EUR DS4H - DEPARTEMENT INFORMATIQUE;SC-UMR 7271 I3S;100;192;27
51455;CABRIO;ELENA;Madame;20/04/1982;39.93;MAIT.CONF.;MT.CONF.CL NORM.;EUR DS4H - DEPARTEMENT INFORMATIQUE;SC-UMR 7271 I3S;100;192;27
20231;CAILLOUET;CHRISTELLE;Madame;08/10/1982;39.46;MAIT.CONF.;MT.CONF.CL NORM.;IUT - DPT INFORMATIQUE;SC-UMR 7271 I3S;100;192;27
75564;CAMINADA;ALEXANDRE;Monsieur;13/01/1963;59.20;PROF.UNIV.;PRF.UNI.CE;POLYTECH - DPT SCIENCES INFORMATIQUES (SI);SC-UMR 7271 I3S;100;192;27
1260;CAROMEL;DENIS;Monsieur;24/09/1963;58.50;PROF.UNIV.;PRF.UNI.CE;EUR DS4H - DEPARTEMENT INFORMATIQUE;SC-UMR 7271 I3S;0;192;27
15660;CAZALS;FREDERIC;Monsieur;27/12/1969;52.24;DIR.RECH.;DR.2C;INRIA - ABS;;100;0;
868;COLLAVIZZA;HELENE;Mademoiselle;03/06/1964;57.81;MAIT.CONF.;MT.CONF.HC;POLYTECH - DPT SCIENCES INFORMATIQUES (SI);SC-UMR 7271 I3S;100;192;27
873;COLLET;PHILIPPE;Monsieur;16/01/1972;50.19;PROF.UNIV.;PRF.UNI.1C;POLYTECH - DPT SCIENCES INFORMATIQUES (SI);SC-UMR 7271 I3S;100;192;27
20942;COMET;JEAN-PAUL;Monsieur;24/10/1968;53.42;PROF.UNIV.;PRF.UNI.1C;POLYTECH - DPT GENIE BIOLOGIQUE (GB);SC-UMR 7271 I3S;100;192;27
16806;CORBY;OLIVIER;Monsieur;16/10/1959;62.44;CH.RECH.;CR;INRIA – WIMMICS;SC-UMR 7271 I3S;100;0;
;CORDONNIER;GUILLAUME;Monsieur;04/11/1992;29.39;CH.RECH.;CRCN;INRIA - GraphDeco;;100;0;
30424;COUDERT;DAVID;Monsieur;03/04/1973;48.98;DIR.RECH.;DR.2C;INRIA - COATI;SC-UMR 7271 I3S;100;0;
78717;COUSTE;MATHIAS;Monsieur;28/04/1991;30.91;CDD;CDD;POLYTECH - DPT SCIENCES INFORMATIQUES (SI);;25;96;27
9073;CRESCENZO;PIERRE;Monsieur;27/03/1971;50.99;MAIT.CONF.;MT.CONF.HC;EUR DS4H - DEPARTEMENT INFORMATIQUE;SC-UMR 7271 I3S;100;192;27
31278;DA COSTA PEREIRA;CELIA;Mademoiselle;02/07/1968;53.73;MAIT.CONF.;MT.CONF.HC;IUT - DPT STATISTIQUE ET INFORMATIQUE DECISIONNELLE;SC-UMR 7271 I3S;100;192;27
917;DALLE;OLIVIER;Monsieur;12/07/1969;52.70;MAIT.CONF.;MT.CONF.HC;EUR DS4H - DEPARTEMENT INFORMATIQUE;SC-UMR 7271 I3S;0;192;27
36400;DE MARIA;ELISABETTA;Madame;15/10/1981;40.44;MAIT.CONF.;MT.CONF.CL NORM.;EUR DS4H - DEPARTEMENT INFORMATIQUE;SC-UMR 7271 I3S;100;192;27
15667;DE SIMONE;ROBERT;Monsieur;26/05/1957;64.83;DIR.RECH.;DR.1C;INRIA – KAIROS;SC-UMR 7271 I3S;25;0;
22947;DEANTONI;JULIEN;Monsieur;26/08/1980;41.58;MAIT.CONF.;MT.CONF.CL NORM.;POLYTECH - DPT SCIENCES INFORMATIQUES (SI);SC-UMR 7271 I3S;100;192;61
59297;DI GIUSTO;CINZIA;Madame;17/10/1979;42.44;MAIT.CONF.;MT.CONF.CL NORM.;EUR DS4H - DEPARTEMENT INFORMATIQUE;SC-UMR 7271 I3S;100;192;27
1518;DONATI;LEO;Monsieur;06/04/1966;55.97;PRAG/PRCE;PRAG.CE;IUT - DPT INFORMATIQUE;;100;192;Math
1524;ESCAZUT;CATHY;Madame;13/04/1967;54.95;MAIT.CONF.;MT.CONF.CL NORM.;IUT - DPT RESEAUX ET TELECOMMUNICATION;SC-UMR 7271 I3S;100;192;27
7388;FARON;CATHERINE;Madame;07/02/1969;53.13;MAIT.CONF.;MT.CONF.HC;POLYTECH - DPT SCIENCES INFORMATIQUES (SI);SC-UMR 7271 I3S;100;192;27
977;FEDELE;CARINE;Madame;05/11/1965;56.39;MAIT.CONF.;MT.CONF.HC;IUT - DPT QUALITE LOGISTIQUE INDUSTRIELLE ET ORGANISATION;SC-UMR 7271 I3S;100;192;27
21010;FERRY;NICOLAS;Monsieur;23/04/1982;39.92;MAIT.CONF.;MT.CONF.CL NORM.;IUT - DPT INFORMATIQUE;SC-UMR 7271 I3S;100;192;27
11474;FORMENTI;ENRICO;Monsieur;07/05/1968;53.88;PROF.UNIV.;PRF.UNI.CE;EUR DS4H - DEPARTEMENT INFORMATIQUE;SC-UMR 7271 I3S;100;192;27
1036;GAETANO;MARC;Monsieur;19/09/1957;64.52;MAIT.CONF.;MT.CONF.HC;POLYTECH - DPT SCIENCES INFORMATIQUES (SI);POLY-POLYTECH'LAB;100;192;27
1042;GALLESIO;ERICK;Monsieur;22/02/1959;63.09;MAIT.CONF.;MT.CONF.HC;POLYTECH - DPT SCIENCES INFORMATIQUES (SI);SC-UMR 7271 I3S;100;192;27
15707;GANDON;FABIEN;Monsieur;31/07/1975;46.65;DIR.RECH.;DR;INRIA – WIMMICS;SC-UMR 7271 I3S;100;0;
1538;GARCIA;CHRISTINE;Madame;01/04/1966;55.98;MAIT.CONF.;MT.CONF.HC;IUT - DPT GESTION DES ENTREPRISES ET DES ADMINISTRATIONS;SC-UMR 7271 I3S;100;192;27
1582;GAUTERO;MICHEL;Monsieur;01/02/1967;55.15;MAIT.CONF.;MT.CONF.CL NORM.;IUT - DPT RESEAUX ET TELECOMMUNICATION;SC-UMR 7271 I3S;100;192;27
21777;GIROIRE;FREDERIC;Monsieur;12/11/1978;43.37;DIR.RECH.;DR.2C;CNRS - Section 6;SC-UMR 7271 I3S;100;0;6
1065;GRANET;VINCENT;Monsieur;31/10/1959;62.40;MAIT.CONF.;MT.CONF.HC;POLYTECH - DPT INGENIERIE SYSTEMES ELECTRONIQUES (ISE);SC-UMR 7271 I3S;100;192;27
13993;GUINGNE;FRANCK;Monsieur;11/04/1972;49.96;MAIT.CONF.;MT.CONF.CL NORM.;EUR DS4H - DEPARTEMENT INFORMATIQUE;SC-UMR 7271 I3S;100;192;27
13262;HAVET;FREDERIC;Monsieur;20/09/1973;48.51;DIR.RECH.;DR;CNRS - Section 6;SC-UMR 7271 I3S;100;0;6
36440;HERMENIER;FABIEN;Monsieur;17/04/1982;39.94;MAIT.CONF.;MT.CONF.CL NORM.;POLYTECH - DPT SCIENCES INFORMATIQUES (SI);SC-UMR 7271 I3S;0;192;27
32841;HOGIE;LUC;Monsieur;28/12/1975;46.24;ING.RECH;IR;CNRS - Section 6;SC-UMR 7271 I3S;100;0;6
20528;HOHWILLER;LUC;Monsieur;01/04/1973;48.98;MAIT.CONF.;MT.CONF.CL NORM.;IUT - DPT TECHNIQUE DE COMMERCIALISATION NICE;SC-UMR 7271 I3S;100;192;27
10676;HUET;FABRICE;Monsieur;26/02/1976;46.08;MAIT.CONF.;PRF.UNI.2C;IUT - DPT QUALITE LOGISTIQUE INDUSTRIELLE ET ORGANISATION;SC-UMR 7271 I3S;100;192;27
1086;JULIA;SANDRINE;Mademoiselle;24/11/1967;54.34;MAIT.CONF.;MT.CONF.HC;EUR DS4H - DEPARTEMENT INFORMATIQUE;SC-UMR 7271 I3S;100;192;27
1486;KOUNALIS;EMMANUEL;Monsieur;07/10/1956;65.47;PROF.UNIV.;PRF.UNI.1C;EUR DS4H - DEPARTEMENT INFORMATIQUE;SC-UMR 7271 I3S;100;192;27
1619;LAHIRE;PHILIPPE;Monsieur;26/06/1961;60.75;PROF.UNIV.;PRF.UNI.CE;EUR DS4H - DEPARTEMENT INFORMATIQUE;SC-UMR 7271 I3S;100;192;27
16238;LAVIROTTE;STEPHANE;Monsieur;23/07/1972;49.67;MAIT.CONF.;MT.CONF.HC;POLYTECH - DPT SCIENCES INFORMATIQUES (SI);SC-UMR 7271 I3S;100;192;27
18747;LEBRUN;JEROME;Monsieur;10/09/1970;51.54;CH.RECH.;CR1;CNRS - Section 7;SC-UMR 7271 I3S;100;0;7
18024;LEGOUT;ARNAUD;Monsieur;10/06/1973;48.79;CH.RECH.;CR;INRIA - DIANA;;100;0;
77064;LEZOWSKI;PIERRE;Monsieur;03/10/1986;35.48;PRAG/PRCE;PRAG CN;EUR DS4H - DEPARTEMENT INFORMATIQUE;;100;384;Math
2719;LINGRAND;DIANE;Madame;14/06/1970;51.78;MAIT.CONF.;MT.CONF.CL NORM.;POLYTECH - DPT SCIENCES INFORMATIQUES (SI);SC-UMR 7271 I3S;100;192;27
12411;LIPPI;SYLVAIN;Monsieur;29/01/1973;49.16;MAIT.CONF.;MT.CONF.CL NORM.;POLYTECH - DPT SCIENCES INFORMATIQUES (SI);SC-UMR 7271 I3S;100;192;27
25842;LIQUORI;LUIGI;Monsieur;09/08/1964;57.63;DIR.RECH.;DR.2C;INRIA - KAIROS;SC-UMR 7271 I3S;100;0;
1492;LITOVSKY;IGOR;Monsieur;21/11/1957;64.34;PROF.UNIV.;PRF.UNI.1C;POLYTECH - DPT SCIENCES INFORMATIQUES (SI);SC-UMR 7271 I3S;100;192;27
26951;LOPEZ;DINO;Monsieur;27/11/1979;42.33;MAIT.CONF.;MT.CONF.CL NORM.;POLYTECH - DPT SCIENCES INFORMATIQUES (SI);SC-UMR 7271 I3S;100;192;27
75440;LOZES;ETIENNE;Monsieur;02/08/1978;43.65;PROF.UNIV.;PRF.UNI.2C;EUR DS4H - DEPARTEMENT INFORMATIQUE;SC-UMR 7271 I3S;100;192;27
64706;LOZI;JEAN-PIERRE;Monsieur;23/07/1984;37.67;MAIT.CONF.;MT.CONF.CL NORM.;EUR DS4H - DEPARTEMENT INFORMATIQUE;SC-UMR 7271 I3S;0;192;27
20396;MADELAINE;ERIC;Monsieur;29/06/1958;63.74;CH.RECH.;CR1;INRIA - KAIROS;SC-UMR 7271 I3S;100;0;
34445;MALAPERT;ARNAUD;Monsieur;18/06/1980;41.77;MAIT.CONF.;MT.CONF.CL NORM.;EUR DS4H - DEPARTEMENT INFORMATIQUE;SC-UMR 7271 I3S;100;192;27
11455;MALLET;FREDERIC;Monsieur;01/12/1975;46.32;PROF.UNIV.;PRF.UNI.1C;EUR DS4H - DEPARTEMENT INFORMATIQUE;SC-UMR 7271 I3S;100;192;27
1118;MARTIN;BRUNO;Monsieur;29/04/1967;54.91;PROF.UNIV.;PRF.UNI.1C;EUR DS4H - DEPARTEMENT INFORMATIQUE;SC-UMR 7271 I3S;100;192;27
78613;MARTINET;JEAN;Monsieur;11/11/1978;43.37;PROF.UNIV.;PRF.UNI.2C;POLYTECH - DPT SCIENCES INFORMATIQUES (SI);SC-UMR 7271 I3S;100;192;27
1123;MENEZ;GILLES;Monsieur;19/08/1965;56.60;MAIT.CONF.;;EUR DS4H - DEPARTEMENT INFORMATIQUE;SC-UMR 7271 I3S;100;192;61
1207;MIRBEL;ISABELLE;Madame;13/05/1970;51.87;MAIT.CONF.;MT.CONF.HC;EUR DS4H - DEPARTEMENT INFORMATIQUE;SC-UMR 7271 I3S;100;192;27
48054;MOLINES;GUILHEM;Monsieur;16/03/1973;49.03;PAST;PAST;POLYTECH - DPT SCIENCES INFORMATIQUES (SI);;50;96;27
18243;MONTAGNAT;JOHAN;Monsieur;05/12/1973;48.31;DIR.RECH.;DR.2C;CNRS - Section 6;SC-UMR 7271 I3S;100;0;6
13437;MOPOLO;GABRIEL;Monsieur;04/11/1955;66.39;CDD;CDD;EUR DS4H - DEPARTEMENT INFORMATIQUE;UFR SCIENCES - DEPARTEMENT INFORMATIQUE;50;96;27
15550;MOSSER;SEBASTIEN;Monsieur;16/11/1983;38.36;MAIT.CONF.;MT.CONF.CL NORM.;POLYTECH - DPT SCIENCES INFORMATIQUES (SI);SC-UMR 7271 I3S;0;192;27
20924;MOULIERAC;JOANNA;Mademoiselle;28/01/1981;41.16;MAIT.CONF.;MT.CONF.CL NORM.;IUT - DPT INFORMATIQUE;SC-UMR 7271 I3S;80;154;27
37543;MUZY;ALEXANDRE;Monsieur;08/01/1978;44.21;CH.RECH.;CR;CNRS - Section 6;SC-UMR 7271 I3S;100;0;
99273;NATALE;EMANUELE;Madame;06/02/1989;33.14;CH.RECH.;CR;CNRS - Section 6;SC-UMR 7271 I3S;100;0;
27776;NEGLIA;GIOVANNI;Monsieur;15/03/1976;46.03;CH.RECH.;CR1;INRIA - NEO;;100;0;
38284;NISSE;NICOLAS;Monsieur;26/11/1980;41.33;CH.RECH.;CR1;INRIA - COATI;SC-UMR 7271 I3S;100;0;6
13517;OCCELLO;AUDREY;Mademoiselle;09/10/1978;43.46;MAIT.CONF.;MT.CONF.CL NORM.;POLYTECH - DPT SCIENCES INFORMATIQUES (SI);SC-UMR 7271 I3S;50;96;27
21387;PALLEZ;DENIS;Monsieur;08/02/1972;50.13;MAIT.CONF.;MT.CONF.HC;IUT - DPT INFORMATIQUE;SC-UMR 7271 I3S;100;192;27
14253;PALLEZ-DARTIGUES;CHRISTEL;Madame;13/05/1976;45.87;MAIT.CONF.;MT.CONF.CL NORM.;IUT - DPT INFORMATIQUE;SC-UMR 7271 I3S;100;192;27
12496;PAPAZIAN;CHRISTOPHE;Monsieur;24/12/1976;45.25;MAIT.CONF.;MT.CONF.CL NORM.;POLYTECH - DPT SCIENCES INFORMATIQUES (SI);SC-UMR 7271 I3S;100;192;27
24417;PASQUIER;CLAUDE;Monsieur;07/12/1963;58.30;CH.RECH.;CRHC;CNRS - Section 6;SC-UMR 7271 I3S;100;0;6
1149;PASQUIER;NICOLAS;Monsieur;30/06/1971;50.74;MAIT.CONF.;MT.CONF.HC;EUR DS4H - DEPARTEMENT INFORMATIQUE;SC-UMR 7271 I3S;100;192;27
75441;PELLEAU;MARIE;Madame;09/02/1986;36.13;MAIT.CONF.;MT.CONF.CL NORM.;EUR DS4H - DEPARTEMENT INFORMATIQUE;SC-UMR 7271 I3S;100;192;27
1673;PERALDI-FRATI;MARIE AGNES;Madame;18/04/1966;55.94;MAIT.CONF.;MT.CONF.HC;IUT - DPT INFORMATIQUE;SC-UMR 7271 I3S;100;192;27
38472;PERENNES;STEPHANE;Monsieur;06/12/1968;53.30;DIR.RECH.;DR2;CNRS - Section 6;SC-UMR 7271 I3S;100;0;6
926;PINNA;ANNE MARIE;Madame;09/01/1964;58.21;MAIT.CONF.;MT.CONF.HC;POLYTECH - DPT SCIENCES INFORMATIQUES (SI);SC-UMR 7271 I3S;100;192;27
54498;POURCELOT;NICOLAS;Monsieur;15/12/1981;40.28;PRAG/PRCE;PRAG CN;IUT - DPT INFORMATIQUE;;100;384;Math
75157;POURTIER;REMI;Monsieur;11/08/1993;28.62;CDD;CDD;POLYTECH - DPT SCIENCES INFORMATIQUES (SI);;50;96;27
11402;PRECIOSO;FREDERIC;Monsieur;21/07/1974;47.68;PROF.UNIV.;PRF.UNI.1C;POLYTECH - DPT SCIENCES INFORMATIQUES (SI);SC-UMR 7271 I3S;40;192;27
30340;PROVILLARD;JULIEN;Monsieur;04/01/1985;37.23;MAIT.CONF.;MT.CONF.CL NORM.;EUR DS4H - DEPARTEMENT INFORMATIQUE;SC-UMR 7271 I3S;100;192;27
23043;REGIN;JEAN-CHARLES;Monsieur;11/01/1966;56.21;PROF.UNIV.;PRF.UNI.CE;EUR DS4H - DEPARTEMENT INFORMATIQUE;SC-UMR 7271 I3S;100;192;27
1940;REGOURD;JEAN-PIERRE;Monsieur;22/05/1958;63.84;MAIT.CONF.;MT.CONF.HC;UFR LASH - DEPARTEMENT INFORMATIQUE;SC-UMR 7271 I3S;100;192;27
18935;RENARD;HELENE;Madame;24/07/1978;43.67;MAIT.CONF.;MT.CONF.CL NORM.;POLYTECH - DPT SCIENCES INFORMATIQUES (SI);SC-UMR 7271 I3S;100;192;27
13234;RENEVIER;PHILIPPE;Monsieur;24/12/1975;46.25;MAIT.CONF.;MT.CONF.HC;EUR DS4H - DEPARTEMENT INFORMATIQUE;SC-UMR 7271 I3S;100;192;27
20996;REY;GAETAN;Monsieur;19/07/1977;44.68;MAIT.CONF.;MT.CONF.HC;IUT - DPT INFORMATIQUE;SC-UMR 7271 I3S;100;192;27
;RICHARD;ADRIEN;Monsieur;02/06/1980;41.81;CH.RECH.;CR;CNRS - Section 6;SC-UMR 7271 I3S;100;0;
1377;RIVEILL;MICHEL;Monsieur;10/10/1960;61.46;PROF.UNIV.;PRF.UNI.CE;POLYTECH - DPT SCIENCES INFORMATIQUES (SI);SC-UMR 7271 I3S;100;192;27
70393;ROUDIER;YVES;Monsieur;19/01/1971;51.18;PROF.UNIV.;PRF.UNI.2C;POLYTECH - DPT SCIENCES INFORMATIQUES (SI);SC-UMR 7271 I3S;100;192;27
1363;SANDER;PETER;Monsieur;07/06/1952;69.80;PROF.UNIV.;PRF.UNI.2C;POLYTECH - DPT SCIENCES INFORMATIQUES (SI);SC-UMR 7271 I3S;100;192;27
26750;SASSATELLI;LUCILE;Madame;22/01/1983;39.18;MAIT.CONF.;MT.CONF.CL NORM.;IUT - DPT RESEAUX ET TELECOMMUNICATION;SC-UMR 7271 I3S;33;192;61
13441;SAUVAGE;NATHALIE;Madame;13/05/1970;51.87;CDD;CDD;EUR DS4H - DEPARTEMENT INFORMATIQUE;EUR DS4H;50;96;27
1814;SYSKA;MICHEL;Monsieur;13/12/1964;57.28;MAIT.CONF.;MT.CONF.HC;IUT - DPT INFORMATIQUE;SC-UMR 7271 I3S;100;192;27
33860;TETTAMANZI;ANDREA;Monsieur;06/05/1966;55.89;PROF.UNIV.;PRF.UNI.1C;EUR DS4H - DEPARTEMENT INFORMATIQUE;SC-UMR 7271 I3S;100;192;27
1252;TIGLI;JEAN YVES;Monsieur;27/08/1968;53.58;MAIT.CONF.;MT.CONF.HC;POLYTECH - DPT SCIENCES INFORMATIQUES (SI);SC-UMR 7271 I3S;100;192;27
35742;TOUATI;SID;Monsieur;01/04/1975;46.98;PROF.UNIV.;PRF.UNI.2C;EUR DS4H - DEPARTEMENT INFORMATIQUE;SC-UMR 7271 I3S;100;192;27
35587;TOUNSI;STEPHANE;Monsieur;11/11/1975;46.37;CDD;CDD;EUR DS4H - DEPARTEMENT INFORMATIQUE;;100;384;
3072;URSO;PASCAL;Monsieur;22/03/1976;46.01;CDD;CDD;POLYTECH - DPT SCIENCES INFORMATIQUES (SI);;100;384;27
31439;URVOY-KELLER;GUILLAUME;Monsieur;04/10/1971;50.48;PROF.UNIV.;PRF.UNI.1C;IUT - DPT RESEAUX ET TELECOMMUNICATION;SC-UMR 7271 I3S;100;192;27
38262;VILLATA;SERENA;Madame;15/02/1981;41.11;CH.RECH.;CR1;CNRS - Section 6;SC-UMR 7271 I3S;100;0;6
75466;WINCKLER;MARCO;Monsieur;10/05/1975;46.88;PROF.UNIV.;PRF.UNI.2C;POLYTECH - DPT SCIENCES INFORMATIQUES (SI);SC-UMR 7271 I3S;100;192;27
18921;WINTER;MICHEL;Monsieur;16/12/1970;51.28;CDI;CDI;EUR DS4H - DEPARTEMENT INFORMATIQUE;;50;192;27
87027;WU;HUI-YIN;Madame;17/07/1988;33.69;ISFP;ISFP;INRIA - BioVision;;100;64;
90748;XU;CHUAN;Madame;25/08/1989;32.58;MAIT.CONF.;MT.CONF.CL NORM.;EUR DS4H - DEPARTEMENT INFORMATIQUE;SC-UMR 7271 I3S;100;192;27
