Numéro national du poste;Harpege;Nom usuel;Premier prénom;Libellé civilité;D.naissance;Age;Libellé court du corps ec;Libellé du grade;Libellé long structure affectation;Affectation rech.;Quotité;Service;Decharge;CNU;HC 19-20
27 PAST8024;19420;ACUNDEGER;EROL;Monsieur;17/12/1964;56.65;PAST;;IUT - DPT INFORMATIQUE;;50;96;;27;37.50
;16463;ALLIEZ;PIERRE;Monsieur;15/01/1973;48.57;DIR.RECH.;;INRIA;;;;;;58.50
27 MCF 0226;64680;APARICIO PARDO;RAMON;Monsieur;20/04/1982;39.31;MAIT.CONF.;MT.CONF.CL NORM.;EUR DS4H - DEPARTEMENT INFORMATIQUE;SC-UMR 7271 I3S;100;192;;27;104.00
;78600;BALDELLON;OLIVIER;Monsieur;29/07/1987;34.03;PRAG/PRCE;PRAG CN;EUR DS4H - DEPARTEMENT INFORMATIQUE;;100;384;;26;-4.00
27 PR 0334;787;BAUDE;FRANCOISE;Madame;30/03/1966;55.36;PROF.UNIV.;PRF.UNI.1C;POLYTECH - DPT SCIENCES INFORMATIQUES (SI);SC-UMR 7271 I3S;100;192;;27;40.00
27 MCF 0198;2783;BEAUQUIER;BRUNO;Monsieur;17/04/1973;48.32;MAIT.CONF.;MT.CONF.CL NORM.;EUR DS4H - DEPARTEMENT INFORMATIQUE;SC-UMR 7271 I3S;100;192;12;27;
27 MCF 0850;70644;BENSMAIL;JULIEN;Monsieur;26/03/1988;33.38;MAIT.CONF.;MT.CONF.CL NORM.;IUT - DPT QUALITE LOGISTIQUE INDUSTRIELLE ET ORGANISATION;SC-UMR 7271 I3S;100;192;;27;74.75
27 PR 1411;20870;BERNOT;GILLES;Monsieur;05/01/1959;62.60;PROF.UNIV.;PRF.UNI.CE;POLYTECH - DPT GENIE BIOLOGIQUE (GB);SC-UMR 7271 I3S;100;192;96;27;
27 PR 0866;984;BLAY;MIREILLE;Madame;17/09/1963;57.90;PROF.UNIV.;PRF.UNI.1C;IUT - DPT INFORMATIQUE;SC-UMR 7271 I3S;100;192;;27;49.75
27 PR 1063;1227;BOND;IOAN;Monsieur;10/01/1954;67.59;PROF.UNIV.;PRF.UNI.1C;POLYTECH - DPT SCIENCES INFORMATIQUES (SI);SC-UMR 7271 I3S;100;192;;27;12.50
27 MCF 1119;9171;BOUDAOUD;KARIMA;Mademoiselle;17/03/1970;51.40;MAIT.CONF.;MT.CONF.CL NORM.;IUT - DPT RESEAUX ET TELECOMMUNICATION;SC-UMR 7271 I3S;100;192;192;27;12.00
;686;BRENAC;LISE;Madame;17/03/1961;60.40;PRAG/PRCE;PRCE CE;IUT - DPT INFORMATIQUE;;100;307;;Info-Gestion;-0.20
27 MCF 1186;849;BUFFA;MICHEL;Monsieur;16/04/1965;56.32;MAIT.CONF.;MT.CONF.HC;EUR DS4H - DEPARTEMENT INFORMATIQUE;SC-UMR 7271 I3S;100;192;;27;188.50
27 MCF 0061;51455;CABRIO;ELENA;Madame;20/04/1982;39.31;MAIT.CONF.;MT.CONF.CL NORM.;EUR DS4H - DEPARTEMENT INFORMATIQUE;SC-UMR 7271 I3S;100;192;-31;27;104.00
27 MCF 1007;20231;CAILLOUET;CHRISTELLE;Madame;08/10/1982;38.84;MAIT.CONF.;MT.CONF.CL NORM.;IUT - DPT INFORMATIQUE;SC-UMR 7271 I3S;100;192;;27;18.50
;75564;CAMINADA;ALEXANDRE;Monsieur;13/01/1963;58.58;PROF.UNIV.;PRF.UNI.CE;POLYTECH - DPT SCIENCES INFORMATIQUES (SI);SC-UMR 7271 I3S;100;192;128;27;
27 PR 0608;1260;CAROMEL;DENIS;Monsieur;24/09/1963;57.88;PROF.UNIV.;PRF.UNI.CE;EUR DS4H - DEPARTEMENT INFORMATIQUE;SC-UMR 7271 I3S;0;192;192;27;
;15660;CAZALS;FREDERIC;Monsieur;27/12/1969;51.62;DIR.RECH.;DR.2C;INRIA;;;;;;
27 MCF 0603;1002;CHIGNOLI;ROBERT;Monsieur;19/11/1954;66.56;MAIT.CONF.;MT.CONF.HC;IUT - DPT INFORMATIQUE;SC-UMR 7271 I3S;100;192;;27;197.75
27 MCF 1101;868;COLLAVIZZA;HELENE;Mademoiselle;03/06/1964;57.19;MAIT.CONF.;MT.CONF.HC;POLYTECH - DPT SCIENCES INFORMATIQUES (SI);SC-UMR 7271 I3S;100;192;;27;61.25
27 PR 0074;873;COLLET;PHILIPPE;Monsieur;16/01/1972;49.57;PROF.UNIV.;PRF.UNI.1C;POLYTECH - DPT SCIENCES INFORMATIQUES (SI);SC-UMR 7271 I3S;100;192;;27;340.00
27 PR 0081;20942;COMET;JEAN-PAUL;Monsieur;24/10/1968;52.80;PROF.UNIV.;PRF.UNI.1C;POLYTECH - DPT GENIE BIOLOGIQUE (GB);SC-UMR 7271 I3S;100;192;;27;34.13
;30424;COUDERT;DAVID;Monsieur;03/04/1973;48.36;DIR.RECH.;DR.2C;INRIA;SC-UMR 7271 I3S;;;;;38.00
27 MCF 0905;78717;COUSTE;MATHIAS;Monsieur;28/04/1991;30.29;CDD;CDD;POLYTECH - DPT SCIENCES INFORMATIQUES (SI);;25;96;;27;31.75
27 MCF 1419;9073;CRESCENZO;PIERRE;Monsieur;27/03/1971;50.37;MAIT.CONF.;MT.CONF.HC;EUR DS4H - DEPARTEMENT INFORMATIQUE;SC-UMR 7271 I3S;100;192;36;27;100.00
27 MCF 1193;31278;DA COSTA PEREIRA;CELIA;Mademoiselle;02/07/1968;53.11;MAIT.CONF.;MT.CONF.HC;IUT - DPT STATISTIQUE ET INFORMATIQUE DECISIONNELLE;SC-UMR 7271 I3S;100;192;;27;22.75
27 MCF 0218;917;DALLE;OLIVIER;Monsieur;12/07/1969;52.08;MAIT.CONF.;MT.CONF.HC;EUR DS4H - DEPARTEMENT INFORMATIQUE;SC-UMR 7271 I3S;0;192;192;27;
27 MCF 1162;36400;DE MARIA;ELISABETTA;Madame;15/10/1981;39.82;MAIT.CONF.;MT.CONF.CL NORM.;EUR DS4H - DEPARTEMENT INFORMATIQUE;SC-UMR 7271 I3S;100;192;192;27;
61 MCF xxxx;22947;DEANTONI;JULIEN;Monsieur;26/08/1980;40.96;MAIT.CONF.;MT.CONF.CL NORM.;POLYTECH - DPT SCIENCES INFORMATIQUES (SI);SC-UMR 7271 I3S;100;192;;61;30.00
27 MCF 1313;59297;DI GIUSTO;CINZIA;Madame;17/10/1979;41.82;MAIT.CONF.;MT.CONF.CL NORM.;EUR DS4H - DEPARTEMENT INFORMATIQUE;SC-UMR 7271 I3S;100;192;;27;103.00
;1518;DONATI;LEO;Monsieur;06/04/1966;55.35;PRAG/PRCE;PRAG.CE;IUT - DPT INFORMATIQUE;;100;192;;Math;282.25
;3515;ENEE;GILLES;Monsieur;20/05/1972;49.06;MAIT.CONF.;;UFR LASH - DEPARTEMENT INFORMATIQUE;;0;192;192;27;
27 MCF 1235;1524;ESCAZUT;CATHY;Madame;13/04/1967;54.33;MAIT.CONF.;MT.CONF.CL NORM.;IUT - DPT RESEAUX ET TELECOMMUNICATION;SC-UMR 7271 I3S;100;192;;27;138.25
27 MCF 0919;7388;FARON;CATHERINE;Madame;07/02/1969;52.51;MAIT.CONF.;MT.CONF.HC;POLYTECH - DPT SCIENCES INFORMATIQUES (SI);SC-UMR 7271 I3S;100;192;;27;54.75
27 MCF 1271;977;FEDELE;CARINE;Madame;05/11/1965;55.77;MAIT.CONF.;MT.CONF.HC;IUT - DPT QUALITE LOGISTIQUE INDUSTRIELLE ET ORGANISATION;SC-UMR 7271 I3S;100;192;;27;71.50
27 MCF 1118;21010;FERRY;NICOLAS;Monsieur;23/04/1982;39.30;MAIT.CONF.;MT.CONF.CL NORM.;IUT - DPT INFORMATIQUE;SC-UMR 7271 I3S;100;192;192;27;34.00
27 PR 0157;11474;FORMENTI;ENRICO;Monsieur;07/05/1968;53.26;PROF.UNIV.;PRF.UNI.CE;EUR DS4H - DEPARTEMENT INFORMATIQUE;SC-UMR 7271 I3S;100;192;;27;166.00
27 MCF 1016;1036;GAETANO;MARC;Monsieur;19/09/1957;63.89;MAIT.CONF.;MT.CONF.HC;POLYTECH - DPT SCIENCES INFORMATIQUES (SI);POLY-POLYTECH'LAB;100;192;;27;154.00
27 MCF 0954;1042;GALLESIO;ERICK;Monsieur;22/02/1959;62.47;MAIT.CONF.;MT.CONF.HC;POLYTECH - DPT SCIENCES INFORMATIQUES (SI);SC-UMR 7271 I3S;100;192;;27;58.25
27 MCF 0537;1538;GARCIA;CHRISTINE;Madame;01/04/1966;55.36;MAIT.CONF.;MT.CONF.HC;IUT - DPT GESTION DES ENTREPRISES ET DES ADMINISTRATIONS;SC-UMR 7271 I3S;100;192;;27;140.00
27 MCF 0535;1582;GAUTERO;MICHEL;Monsieur;01/02/1967;54.53;MAIT.CONF.;MT.CONF.CL NORM.;IUT - DPT RESEAUX ET TELECOMMUNICATION;SC-UMR 7271 I3S;100;192;;27;217.25
;21777;GIROIRE;FREDERIC;Monsieur;12/11/1978;42.75;DIR.RECH.;DR.2C;CNRS - Section 6;SC-UMR 7271 I3S;;;;6;33.63
27 MCF 1199;1065;GRANET;VINCENT;Monsieur;31/10/1959;61.78;MAIT.CONF.;MT.CONF.HC;POLYTECH - DPT INGENIERIE SYSTEMES ELECTRONIQUES (ISE);SC-UMR 7271 I3S;100;192;;27;212.50
27 MCF 0620;13993;GUINGNE;FRANCK;Monsieur;11/04/1972;49.33;MAIT.CONF.;MT.CONF.CL NORM.;EUR DS4H - DEPARTEMENT INFORMATIQUE;SC-UMR 7271 I3S;100;192;11;27;68.80
;36440;HERMENIER;FABIEN;Monsieur;17/04/1982;39.32;MAIT.CONF.;MT.CONF.CL NORM.;POLYTECH - DPT SCIENCES INFORMATIQUES (SI);SC-UMR 7271 I3S;0;192;192;27;
;32841;HOGIE;LUC;Monsieur;28/12/1975;45.62;ING.RECH;IR;CNRS - Section 6;SC-UMR 7271 I3S;;;;6;33.50
27 MCF 1518;20528;HOHWILLER;LUC;Monsieur;01/04/1973;48.36;MAIT.CONF.;MT.CONF.CL NORM.;IUT - DPT TECHNIQUE DE COMMERCIALISATION NICE;SC-UMR 7271 I3S;100;192;;27;48.00
27 MCF 1348;10676;HUET;FABRICE;Monsieur;26/02/1976;45.46;MAIT.CONF.;PRF.UNI.2C;IUT - DPT QUALITE LOGISTIQUE INDUSTRIELLE ET ORGANISATION;SC-UMR 7271 I3S;100;192;;27;161.00
27 MCF 0956;1086;JULIA;SANDRINE;Mademoiselle;24/11/1967;53.71;MAIT.CONF.;MT.CONF.HC;EUR DS4H - DEPARTEMENT INFORMATIQUE;SC-UMR 7271 I3S;100;192;-31;27;
27 PR 0003;1486;KOUNALIS;EMMANUEL;Monsieur;07/10/1956;64.84;PROF.UNIV.;PRF.UNI.1C;EUR DS4H - DEPARTEMENT INFORMATIQUE;SC-UMR 7271 I3S;100;192;-72;27;
27 PR 1480;1619;LAHIRE;PHILIPPE;Monsieur;26/06/1961;60.13;PROF.UNIV.;PRF.UNI.CE;EUR DS4H - DEPARTEMENT INFORMATIQUE;SC-UMR 7271 I3S;100;192;192;27;
27 MCF 0098;16238;LAVIROTTE;STEPHANE;Monsieur;23/07/1972;49.05;MAIT.CONF.;MT.CONF.HC;POLYTECH - DPT SCIENCES INFORMATIQUES (SI);SC-UMR 7271 I3S;100;192;;27;115.50
;18747;LEBRUN;JEROME;Monsieur;10/09/1970;50.92;CH.RECH.;CR1;CNRS - Section 7;SC-UMR 7271 I3S;;;;7;
;1641;LECAT;ROSA;Madame;13/05/1956;65.08;PRAG/PRCE;PRCE CE HE;IUT - DPT INFORMATIQUE;;100;384;;Math;248.25
;77064;LEZOWSKI;PIERRE;Monsieur;03/10/1986;34.86;PRAG/PRCE;PRAG CN;EUR DS4H - DEPARTEMENT INFORMATIQUE;;100;384;;Math;72.00
27 MCF 1353;2719;LINGRAND;DIANE;Madame;14/06/1970;51.16;MAIT.CONF.;MT.CONF.CL NORM.;POLYTECH - DPT SCIENCES INFORMATIQUES (SI);SC-UMR 7271 I3S;100;192;;27;173.25
27 MCF 0924;12411;LIPPI;SYLVAIN;Monsieur;29/01/1973;48.53;MAIT.CONF.;MT.CONF.CL NORM.;POLYTECH - DPT SCIENCES INFORMATIQUES (SI);SC-UMR 7271 I3S;100;192;;27;-5.50
27 PR 0920;1492;LITOVSKY;IGOR;Monsieur;21/11/1957;63.72;PROF.UNIV.;PRF.UNI.1C;POLYTECH - DPT SCIENCES INFORMATIQUES (SI);SC-UMR 7271 I3S;100;192;;27;31.50
27 MCF 1189;26951;LOPEZ;DINO;Monsieur;27/11/1979;41.71;MAIT.CONF.;MT.CONF.CL NORM.;POLYTECH - DPT SCIENCES INFORMATIQUES (SI);SC-UMR 7271 I3S;100;192;;27;15.00
27 PR 0209;75440;LOZES;ETIENNE;Monsieur;02/08/1978;43.03;PROF.UNIV.;PRF.UNI.2C;EUR DS4H - DEPARTEMENT INFORMATIQUE;SC-UMR 7271 I3S;50;192;;27;-29.05
;64706;LOZI;JEAN-PIERRE;Monsieur;23/07/1984;37.05;MAIT.CONF.;MT.CONF.CL NORM.;EUR DS4H - DEPARTEMENT INFORMATIQUE;SC-UMR 7271 I3S;100;192;192;27;
27 MCF 0328;34445;MALAPERT;ARNAUD;Monsieur;18/06/1980;41.15;MAIT.CONF.;MT.CONF.CL NORM.;EUR DS4H - DEPARTEMENT INFORMATIQUE;SC-UMR 7271 I3S;100;192;;27;185.50
27 PR 0010;11455;MALLET;FREDERIC;Monsieur;01/12/1975;45.69;PROF.UNIV.;PRF.UNI.1C;EUR DS4H - DEPARTEMENT INFORMATIQUE;SC-UMR 7271 I3S;100;192;23;27;263.00
27 PR 1514;1118;MARTIN;BRUNO;Monsieur;29/04/1967;54.28;PROF.UNIV.;PRF.UNI.1C;EUR DS4H - DEPARTEMENT INFORMATIQUE;SC-UMR 7271 I3S;100;192;27;27;
27 PR 1133;78613;MARTINET;JEAN;Monsieur;11/11/1978;42.75;PROF.UNIV.;PRF.UNI.2C;POLYTECH - DPT SCIENCES INFORMATIQUES (SI);SC-UMR 7271 I3S;100;192;;27;162.00
61 MCF xxxx;1123;MENEZ;GILLES;Monsieur;19/08/1965;55.98;MAIT.CONF.;;EUR DS4H - DEPARTEMENT INFORMATIQUE;SC-UMR 7271 I3S;100;192;;61;82.00
27 PR xxxx;1428;MIRANDA;SERGE;Monsieur;19/08/1952;68.81;PROF.UNIV.;PRF.UNI.CE;EUR DS4H - DEPARTEMENT INFORMATIQUE;;100;192;40;27;
27 MCF 0215;1207;MIRBEL;ISABELLE;Madame;13/05/1970;51.24;MAIT.CONF.;MT.CONF.HC;EUR DS4H - DEPARTEMENT INFORMATIQUE;SC-UMR 7271 I3S;100;192;128;27;1.00
27 PAST8019;48054;MOLINES;GUILHEM;Monsieur;16/03/1973;48.40;PAST;PAST;POLYTECH - DPT SCIENCES INFORMATIQUES (SI);;50;96;;27;56.75
;18243;MONTAGNAT;JOHAN;Monsieur;05/12/1973;47.68;DIR.RECH.;DR.2C;CNRS - Section 6;SC-UMR 7271 I3S;;;;6;33.50
27PAST8033;13437;MOPOLO;GABRIEL;Monsieur;04/11/1955;65.77;CDD;CDD;EUR DS4H - DEPARTEMENT INFORMATIQUE;UFR SCIENCES - DEPARTEMENT INFORMATIQUE;50;96;;27;73.00
;15550;MOSSER;SEBASTIEN;Monsieur;16/11/1983;37.74;MAIT.CONF.;MT.CONF.CL NORM.;POLYTECH - DPT SCIENCES INFORMATIQUES (SI);SC-UMR 7271 I3S;0;192;192;27;
27 MCF 0539;20924;MOULIERAC;JOANNA;Mademoiselle;28/01/1981;40.54;MAIT.CONF.;MT.CONF.CL NORM.;IUT - DPT INFORMATIQUE;SC-UMR 7271 I3S;80;154;;27;
;44492;NISSE;NICOLAS;Monsieur;26/11/1980;40.71;CH.RECH.;CR1;INRIA;SC-UMR 7271 I3S;;;;6;52.00
27 MCF 1191;13517;OCCELLO;AUDREY;Mademoiselle;09/10/1978;42.84;MAIT.CONF.;MT.CONF.CL NORM.;POLYTECH - DPT SCIENCES INFORMATIQUES (SI);SC-UMR 7271 I3S;50;96;;27;-2.00
27 MCF 1413;21387;PALLEZ;DENIS;Monsieur;08/02/1972;49.51;MAIT.CONF.;MT.CONF.HC;IUT - DPT INFORMATIQUE;SC-UMR 7271 I3S;100;192;;27;106.38
27 MCF 1393;14253;PALLEZ-DARTIGUES;CHRISTEL;Madame;13/05/1976;45.24;MAIT.CONF.;MT.CONF.CL NORM.;IUT - DPT INFORMATIQUE;SC-UMR 7271 I3S;100;192;;27;88.50
27 MCF 1450;12496;PAPAZIAN;CHRISTOPHE;Monsieur;24/12/1976;44.63;MAIT.CONF.;MT.CONF.CL NORM.;POLYTECH - DPT SCIENCES INFORMATIQUES (SI);SC-UMR 7271 I3S;100;192;58;27;
27 MCF 1100;1149;PASQUIER;NICOLAS;Monsieur;30/06/1971;50.11;MAIT.CONF.;MT.CONF.HC;EUR DS4H - DEPARTEMENT INFORMATIQUE;SC-UMR 7271 I3S;100;192;;27;3.25
27 MCF 0704;75441;PELLEAU;MARIE;Madame;09/02/1986;35.51;MAIT.CONF.;MT.CONF.CL NORM.;EUR DS4H - DEPARTEMENT INFORMATIQUE;SC-UMR 7271 I3S;100;192;-13;27;
27 MCF 0538;1673;PERALDI-FRATI;MARIE AGNES;Madame;18/04/1966;55.31;MAIT.CONF.;MT.CONF.HC;IUT - DPT INFORMATIQUE;SC-UMR 7271 I3S;100;192;;27;49.25
27 PR 1005;1388;PEYRAT;CLAUDINE;Madame;27/09/1959;61.70;PROF.UNIV.;PRF.UNI.1C;POLYTECH - DPT SCIENCES INFORMATIQUES (SI);SC-UMR 7271 I3S;100;192;;27;37.00
27 MCF 0902;926;PINNA;ANNE MARIE;Madame;09/01/1964;57.59;MAIT.CONF.;MT.CONF.HC;POLYTECH - DPT SCIENCES INFORMATIQUES (SI);SC-UMR 7271 I3S;100;192;;27;130.00
;54498;POURCELOT;NICOLAS;Monsieur;15/12/1981;39.66;PRAG/PRCE;PRAG CN;IUT - DPT INFORMATIQUE;;100;384;;Math;93.50
27 MCF 0905;75157;POURTIER;REMI;Monsieur;11/08/1993;28.00;CDD;CDD;POLYTECH - DPT SCIENCES INFORMATIQUES (SI);;50;96;;27;58.00
27 PR 0933;11402;PRECIOSO;FREDERIC;Monsieur;21/07/1974;47.06;PROF.UNIV.;PRF.UNI.1C;POLYTECH - DPT SCIENCES INFORMATIQUES (SI);SC-UMR 7271 I3S;40;192;70;27;52.75
27 MCF 1114;30340;PROVILLARD;JULIEN;Monsieur;04/01/1985;36.60;MAIT.CONF.;MT.CONF.CL NORM.;EUR DS4H - DEPARTEMENT INFORMATIQUE;SC-UMR 7271 I3S;100;192;10;27;73.60
27 PR 0177;23043;REGIN;JEAN-CHARLES;Monsieur;11/01/1966;55.58;PROF.UNIV.;PRF.UNI.CE;EUR DS4H - DEPARTEMENT INFORMATIQUE;SC-UMR 7271 I3S;100;192;;27;139.50
27 MCF 0234;1940;REGOURD;JEAN-PIERRE;Monsieur;22/05/1958;63.22;MAIT.CONF.;MT.CONF.HC;UFR LASH - DEPARTEMENT INFORMATIQUE;SC-UMR 7271 I3S;100;192;;27;99.50
27 MCF 1472;18935;RENARD;HELENE;Madame;24/07/1978;43.05;MAIT.CONF.;MT.CONF.CL NORM.;POLYTECH - DPT SCIENCES INFORMATIQUES (SI);SC-UMR 7271 I3S;100;192;;27;70.00
27 MCF 1276;13234;RENEVIER;PHILIPPE;Monsieur;24/12/1975;45.63;MAIT.CONF.;MT.CONF.HC;EUR DS4H - DEPARTEMENT INFORMATIQUE;SC-UMR 7271 I3S;100;192;;27;263.50
27 MCF 0615;20996;REY;GAETAN;Monsieur;19/07/1977;44.06;MAIT.CONF.;MT.CONF.HC;IUT - DPT INFORMATIQUE;SC-UMR 7271 I3S;100;192;52;27;
27 PR 1045;1377;RIVEILL;MICHEL;Monsieur;10/10/1960;60.84;PROF.UNIV.;PRF.UNI.CE;POLYTECH - DPT SCIENCES INFORMATIQUES (SI);SC-UMR 7271 I3S;100;192;;27;11.50
27 PR 1161;70393;ROUDIER;YVES;Monsieur;19/01/1971;50.56;PROF.UNIV.;PRF.UNI.2C;POLYTECH - DPT SCIENCES INFORMATIQUES (SI);SC-UMR 7271 I3S;100;192;;27;144.00
;79913;SABRI;OUSSAMA;Monsieur;02/10/1992;28.86;ATER;1/2 ATER;EUR DS4H - DEPARTEMENT INFORMATIQUE;SC-UMR 7271 I3S;50;96;;26;
;1363;SANDER;PETER;Monsieur;07/06/1952;69.18;PROF.UNIV.;PRF.UNI.2C;POLYTECH - DPT SCIENCES INFORMATIQUES (SI);SC-UMR 7271 I3S;100;192;;27;76.50
;26750;SASSATELLI;LUCILE;Madame;22/01/1983;38.55;MAIT.CONF.;MT.CONF.CL NORM.;IUT - DPT RESEAUX ET TELECOMMUNICATION;SC-UMR 7271 I3S;33;192;128;61;
27 PAST8007;13441;SAUVAGE;NATHALIE;Madame;13/05/1970;51.24;CDD;CDD;EUR DS4H - DEPARTEMENT INFORMATIQUE;EUR DS4H;50;96;;27;91.50
27 MCF 1170;1814;SYSKA;MICHEL;Monsieur;13/12/1964;56.66;MAIT.CONF.;MT.CONF.HC;IUT - DPT INFORMATIQUE;SC-UMR 7271 I3S;100;192;;27;145.50
27 PR 0116;33860;TETTAMANZI;ANDREA;Monsieur;06/05/1966;55.26;PROF.UNIV.;PRF.UNI.1C;EUR DS4H - DEPARTEMENT INFORMATIQUE;SC-UMR 7271 I3S;100;192;64;27;
27 MCF 1273;1252;TIGLI;JEAN YVES;Monsieur;27/08/1968;52.96;MAIT.CONF.;MT.CONF.HC;POLYTECH - DPT SCIENCES INFORMATIQUES (SI);SC-UMR 7271 I3S;100;192;;27;105.00
27 PR 0808;35742;TOUATI;SID;Monsieur;01/04/1975;46.36;PROF.UNIV.;PRF.UNI.2C;EUR DS4H - DEPARTEMENT INFORMATIQUE;SC-UMR 7271 I3S;100;192;;27;52.75
27 MCF 1064;3072;URSO;PASCAL;Monsieur;22/03/1976;45.39;CDD;CDD;POLYTECH - DPT SCIENCES INFORMATIQUES (SI);;100;384;48;27;-2.25
27 PR 0594;31439;URVOY-KELLER;GUILLAUME;Monsieur;04/10/1971;49.85;PROF.UNIV.;PRF.UNI.1C;IUT - DPT RESEAUX ET TELECOMMUNICATION;SC-UMR 7271 I3S;100;192;;27;70.50
;38262;VILLATA;SERENA;Madame;15/02/1981;40.49;CH.RECH.;CR1;CNRS - Section 6;SC-UMR 7271 I3S;;;;6;
27PR0901;75466;WINCKLER;MARCO;Monsieur;10/05/1975;46.25;PROF.UNIV.;PRF.UNI.2C;POLYTECH - DPT SCIENCES INFORMATIQUES (SI);SC-UMR 7271 I3S;100;192;;27;-7.00
27 CDI xxxxx;18921;WINTER;MICHEL;Monsieur;16/12/1970;50.65;CDI;CDI;EUR DS4H - DEPARTEMENT INFORMATIQUE;;50;192;;27;126.00
;87027;WU;HUI-YIN;Madame;17/07/1988;33.07;ISFP;ISFP;INRIA;;;;;;
